{"__key":"products_c0_csnone_f0_sqnone_spopular_p1_l6","__created":1784733882,"__data":{"success":true,"category":null,"data":[{"id":3995,"category_id":10,"name":"Rent Ring Jhumka Earrings","slug":"rent-ring-jhumka-earrings","sku":"EAR799ON","description":"1) Traditional Micro Gold Polished Oxidized Pearl Earrings designed by Yosshita & Neha.\n2) Look feminine and elegant by wearing these beautiful Earrings.\n3) Featuring attractive designs, these Earrings can look elegant and stylish when worn with anarkali, lehengas, gowns or saris.\n4) So enhance your style quotient on almost any occasion by wearing these Earrings.\n5) It has Copper metal base.\n6) Give a rich yet elegant touch to your attire.\n7) Huggie for locking.\n8) These Earrings have been intricately designed for all the jewellery lovers.","short_description":"","price":"600.00","sale_price":540,"stock_qty":4,"is_featured":0,"status":"published","main_image":"uploads/products/EAR799ON/main.jpg","view_count":0,"created_at":"2026-07-21 19:28:29","updated_at":"2026-07-22 20:09:11","deleted_at":null,"category_name":"Diamond","images":[{"image_path":"uploads/products/EAR799ON/gallery_1_1784731370.jpg","thumb_path":"uploads/products/EAR799ON/thumbs/thumb_gallery_1_1784731370.jpg"},{"image_path":"uploads/products/EAR799ON/gallery_2_1784731371.jpg","thumb_path":"uploads/products/EAR799ON/thumbs/thumb_gallery_2_1784731371.jpg"},{"image_path":"uploads/products/EAR799ON/gallery_3_1784731371.jpg","thumb_path":"uploads/products/EAR799ON/thumbs/thumb_gallery_3_1784731371.jpg"},{"image_path":"uploads/products/EAR799ON/gallery_4_1784731371.jpg","thumb_path":"uploads/products/EAR799ON/thumbs/thumb_gallery_4_1784731371.jpg"},{"image_path":"uploads/products/EAR799ON/gallery_5_1784731372.jpg","thumb_path":"uploads/products/EAR799ON/thumbs/thumb_gallery_5_1784731372.jpg"}],"original_price":600,"discount_info":{"rule_id":1,"rule_name":"Sample 10% Off Global Sale","type":"percentage","value":10,"label":"10% OFF","original_price":600,"discounted_price":540,"savings":60},"has_discount":true},{"id":3994,"category_id":4,"name":"Product EAR712ON","slug":"product-ear712on","sku":"EAR712ON","description":"Look gorgeous in these kundan and pearl drop hoop earrings. These earrings can go well with ethnic outfits.","short_description":"","price":"3500.00","sale_price":3150,"stock_qty":1,"is_featured":0,"status":"published","main_image":"uploads/products/EAR712ON/product-ear712on-6a5f7b0311346.jpg","view_count":5,"created_at":"2026-07-21 19:28:27","updated_at":"2026-07-22 19:20:22","deleted_at":null,"category_name":"Earrings","images":[{"image_path":"uploads/products/EAR712ON/product-ear712on-6a5f7b0350bb1.jpg","thumb_path":"uploads/products/EAR712ON/thumbs/thumb_product-ear712on-6a5f7b0350bb1.jpg"},{"image_path":"uploads/products/EAR712ON/product-ear712on-6a5f7b038eb39.jpg","thumb_path":"uploads/products/EAR712ON/thumbs/thumb_product-ear712on-6a5f7b038eb39.jpg"},{"image_path":"uploads/products/EAR712ON/product-ear712on-6a5f7b0478604.jpg","thumb_path":"uploads/products/EAR712ON/thumbs/thumb_product-ear712on-6a5f7b0478604.jpg"},{"image_path":"uploads/products/EAR712ON/product-ear712on-6a5f7b04b659c.jpg","thumb_path":"uploads/products/EAR712ON/thumbs/thumb_product-ear712on-6a5f7b04b659c.jpg"}],"original_price":3500,"discount_info":{"rule_id":1,"rule_name":"Sample 10% Off Global Sale","type":"percentage","value":10,"label":"10% OFF","original_price":3500,"discounted_price":3150,"savings":350},"has_discount":true},{"id":3993,"category_id":4,"name":"Product EAR640BCS","slug":"product-ear640bcs","sku":"EAR640BCS","description":"?Sri Shringarr Fashion Womens Real Look, Traditional Micro Gun Metal Polished American Diamond Earrings designed by Yosshita & Neha. \n\\n?Look feminine and elegant by wearing these beautiful American Diamond earrings.\n\\n?Featuring attractive designs, these earrings can look elegant and stylish when worn with Anarkali, Lehengas, Sarees or Gown. \n\\n?So enhance your style quotient on almost any occasion by wearing these earrings. \n\\n?These Earrings are studded with White Coloured American Diamond stones.\n\\n?Comes micro gold polished. \n\\n?It has Brass metal base. \n\\n?Give a rich yet elegant touch to your attire. \n\\n?Screw for locking. \n\\n?These Earrings have been intricately designed for all the jewellery lovers.","short_description":"","price":"1100.00","sale_price":990,"stock_qty":0,"is_featured":0,"status":"published","main_image":"uploads/products/EAR640BCS/product-ear640bcs-6a5f7b02612bc.jpg","view_count":6,"created_at":"2026-07-21 19:28:26","updated_at":"2026-07-22 19:16:20","deleted_at":null,"category_name":"Earrings","images":[{"image_path":"uploads/products/EAR640BCS/product-ear640bcs-6a5f7b02ad379.jpg","thumb_path":"uploads/products/EAR640BCS/thumbs/thumb_product-ear640bcs-6a5f7b02ad379.jpg"}],"original_price":1100,"discount_info":{"rule_id":1,"rule_name":"Sample 10% Off Global Sale","type":"percentage","value":10,"label":"10% OFF","original_price":1100,"discounted_price":990,"savings":110},"has_discount":true},{"id":3992,"category_id":4,"name":"Product EAR639ACS","slug":"product-ear639acs","sku":"EAR639ACS","description":"?Sri Shringarr Fashion Womens Real Look, Traditional Micro Silver Polished American Diamond Earrings designed by Yosshita & Neha. \n\\n?Look feminine and elegant by wearing these beautiful American Diamond earrings.\n\\n?Featuring attractive designs, these earrings can look elegant and stylish when worn with Anarkali, Lehengas, Sarees or Gown. \n\\n?So enhance your style quotient on almost any occasion by wearing these earrings. \n\\n?These Earrings are studded with White Coloured American Diamond stones.\n\\n?Comes micro gold polished. \n\\n?It has Brass metal base. \n\\n?Give a rich yet elegant touch to your attire. \n\\n?Screw for locking. \n\\n?These Earrings have been intricately designed for all the jewellery lovers.","short_description":"","price":"2200.00","sale_price":1980,"stock_qty":1,"is_featured":0,"status":"published","main_image":"uploads/products/EAR639ACS/product-ear639acs-6a5f7b01a6919.jpg","view_count":2,"created_at":"2026-07-21 19:28:25","updated_at":"2026-07-22 15:37:08","deleted_at":null,"category_name":"Earrings","images":[{"image_path":"uploads/products/EAR639ACS/product-ear639acs-6a5f7b02060a0.jpg","thumb_path":"uploads/products/EAR639ACS/thumbs/thumb_product-ear639acs-6a5f7b02060a0.jpg"}],"original_price":2200,"discount_info":{"rule_id":1,"rule_name":"Sample 10% Off Global Sale","type":"percentage","value":10,"label":"10% OFF","original_price":2200,"discounted_price":1980,"savings":220},"has_discount":true},{"id":3990,"category_id":4,"name":"Product EAR603ACS","slug":"product-ear603acs","sku":"EAR603ACS","description":"?Sri Shringarr Fashion Womens Real Look, Traditional Micro Gold Polished American Diamond Earrings designed by Yosshita & Neha. \n\\n?Look feminine and elegant by wearing these beautiful American Diamond earrings.\n\\n?Featuring attractive designs, these earrings can look elegant and stylish when worn with Anarkali, Lehengas, Sarees or Gown. \n\\n?So enhance your style quotient on almost any occasion by wearing these earrings. \n\\n?These Earrings are studded with Green coloured semi precious stone.\n\\n?Comes micro gold polished. \n\\n?It has Brass metal base. \n\\n?Give a rich yet elegant touch to your attire. \n\\n?These Earrings have been intricately designed for all the jewellery lovers.","short_description":"","price":"2800.00","sale_price":2520,"stock_qty":1,"is_featured":0,"status":"published","main_image":"uploads/products/EAR603ACS/product-ear603acs-6a5f7b008ce3a.jpg","view_count":0,"created_at":"2026-07-21 19:28:24","updated_at":"2026-07-22 15:37:51","deleted_at":null,"category_name":"Earrings","images":[],"original_price":2800,"discount_info":{"rule_id":1,"rule_name":"Sample 10% Off Global Sale","type":"percentage","value":10,"label":"10% OFF","original_price":2800,"discounted_price":2520,"savings":280},"has_discount":true},{"id":3991,"category_id":4,"name":"Product EAR611CS","slug":"product-ear611cs","sku":"EAR611CS","description":"?Sri Shringarr Fashion Womens Real Look, Traditional Micro Gold Polished American Diamond Earrings designed by Yosshita & Neha. \n\\n?Look feminine and elegant by wearing these beautiful American Diamond earrings.\n\\n?Featuring attractive designs, these earrings can look elegant and stylish when worn with Anarkali, Lehengas, Sarees or Gown. \n\\n?So enhance your style quotient on almost any occasion by wearing these earrings. \n\\n?These Earrings are studded with White American Diamond stones and Champagne coloured semi precious stone.\n\\n?Comes micro gold polished. \n\\n?It has Brass metal base. \n\\n?Give a rich yet elegant touch to your attire. \n\\n?These Earrings have been intricately designed for all the jewellery lovers.","short_description":"","price":"8000.00","sale_price":7200,"stock_qty":1,"is_featured":0,"status":"published","main_image":"uploads/products/EAR611CS/product-ear611cs-6a5f7b00e9da3.jpg","view_count":6,"created_at":"2026-07-21 19:28:24","updated_at":"2026-07-22 19:13:42","deleted_at":null,"category_name":"Earrings","images":[{"image_path":"uploads/products/EAR611CS/product-ear611cs-6a5f7b0142965.jpg","thumb_path":"uploads/products/EAR611CS/thumbs/thumb_product-ear611cs-6a5f7b0142965.jpg"}],"original_price":8000,"discount_info":{"rule_id":1,"rule_name":"Sample 10% Off Global Sale","type":"percentage","value":10,"label":"10% OFF","original_price":8000,"discounted_price":7200,"savings":800},"has_discount":true}],"pagination":{"current_page":1,"total_pages":393,"total_items":2354,"limit":6}}}