{"__key":"products_c0_csnone_f0_sqnone_snewest_p1_l12","__created":1784733893,"__data":{"success":true,"category":null,"data":[{"id":3995,"category_id":10,"name":"Rent Ring Jhumka Earrings","slug":"rent-ring-jhumka-earrings","sku":"EAR799ON","description":"1) Traditional Micro Gold Polished Oxidized Pearl Earrings designed by Yosshita & Neha.\n2) Look feminine and elegant by wearing these beautiful Earrings.\n3) Featuring attractive designs, these Earrings can look elegant and stylish when worn with anarkali, lehengas, gowns or saris.\n4) So enhance your style quotient on almost any occasion by wearing these Earrings.\n5) It has Copper metal base.\n6) Give a rich yet elegant touch to your attire.\n7) Huggie for locking.\n8) These Earrings have been intricately designed for all the jewellery lovers.","short_description":"","price":"600.00","sale_price":540,"stock_qty":4,"is_featured":0,"status":"published","main_image":"uploads/products/EAR799ON/main.jpg","view_count":0,"created_at":"2026-07-21 19:28:29","updated_at":"2026-07-22 20:09:11","deleted_at":null,"category_name":"Diamond","images":[{"image_path":"uploads/products/EAR799ON/gallery_1_1784731370.jpg","thumb_path":"uploads/products/EAR799ON/thumbs/thumb_gallery_1_1784731370.jpg"},{"image_path":"uploads/products/EAR799ON/gallery_2_1784731371.jpg","thumb_path":"uploads/products/EAR799ON/thumbs/thumb_gallery_2_1784731371.jpg"},{"image_path":"uploads/products/EAR799ON/gallery_3_1784731371.jpg","thumb_path":"uploads/products/EAR799ON/thumbs/thumb_gallery_3_1784731371.jpg"},{"image_path":"uploads/products/EAR799ON/gallery_4_1784731371.jpg","thumb_path":"uploads/products/EAR799ON/thumbs/thumb_gallery_4_1784731371.jpg"},{"image_path":"uploads/products/EAR799ON/gallery_5_1784731372.jpg","thumb_path":"uploads/products/EAR799ON/thumbs/thumb_gallery_5_1784731372.jpg"}],"original_price":600,"discount_info":{"rule_id":1,"rule_name":"Sample 10% Off Global Sale","type":"percentage","value":10,"label":"10% OFF","original_price":600,"discounted_price":540,"savings":60},"has_discount":true},{"id":3994,"category_id":4,"name":"Product EAR712ON","slug":"product-ear712on","sku":"EAR712ON","description":"Look gorgeous in these kundan and pearl drop hoop earrings. These earrings can go well with ethnic outfits.","short_description":"","price":"3500.00","sale_price":3150,"stock_qty":1,"is_featured":0,"status":"published","main_image":"uploads/products/EAR712ON/product-ear712on-6a5f7b0311346.jpg","view_count":5,"created_at":"2026-07-21 19:28:27","updated_at":"2026-07-22 19:20:22","deleted_at":null,"category_name":"Earrings","images":[{"image_path":"uploads/products/EAR712ON/product-ear712on-6a5f7b0350bb1.jpg","thumb_path":"uploads/products/EAR712ON/thumbs/thumb_product-ear712on-6a5f7b0350bb1.jpg"},{"image_path":"uploads/products/EAR712ON/product-ear712on-6a5f7b038eb39.jpg","thumb_path":"uploads/products/EAR712ON/thumbs/thumb_product-ear712on-6a5f7b038eb39.jpg"},{"image_path":"uploads/products/EAR712ON/product-ear712on-6a5f7b0478604.jpg","thumb_path":"uploads/products/EAR712ON/thumbs/thumb_product-ear712on-6a5f7b0478604.jpg"},{"image_path":"uploads/products/EAR712ON/product-ear712on-6a5f7b04b659c.jpg","thumb_path":"uploads/products/EAR712ON/thumbs/thumb_product-ear712on-6a5f7b04b659c.jpg"}],"original_price":3500,"discount_info":{"rule_id":1,"rule_name":"Sample 10% Off Global Sale","type":"percentage","value":10,"label":"10% OFF","original_price":3500,"discounted_price":3150,"savings":350},"has_discount":true},{"id":3993,"category_id":4,"name":"Product EAR640BCS","slug":"product-ear640bcs","sku":"EAR640BCS","description":"?Sri Shringarr Fashion Womens Real Look, Traditional Micro Gun Metal Polished American Diamond Earrings designed by Yosshita & Neha. \n\\n?Look feminine and elegant by wearing these beautiful American Diamond earrings.\n\\n?Featuring attractive designs, these earrings can look elegant and stylish when worn with Anarkali, Lehengas, Sarees or Gown. \n\\n?So enhance your style quotient on almost any occasion by wearing these earrings. \n\\n?These Earrings are studded with White Coloured American Diamond stones.\n\\n?Comes micro gold polished. \n\\n?It has Brass metal base. \n\\n?Give a rich yet elegant touch to your attire. \n\\n?Screw for locking. \n\\n?These Earrings have been intricately designed for all the jewellery lovers.","short_description":"","price":"1100.00","sale_price":990,"stock_qty":0,"is_featured":0,"status":"published","main_image":"uploads/products/EAR640BCS/product-ear640bcs-6a5f7b02612bc.jpg","view_count":6,"created_at":"2026-07-21 19:28:26","updated_at":"2026-07-22 19:16:20","deleted_at":null,"category_name":"Earrings","images":[{"image_path":"uploads/products/EAR640BCS/product-ear640bcs-6a5f7b02ad379.jpg","thumb_path":"uploads/products/EAR640BCS/thumbs/thumb_product-ear640bcs-6a5f7b02ad379.jpg"}],"original_price":1100,"discount_info":{"rule_id":1,"rule_name":"Sample 10% Off Global Sale","type":"percentage","value":10,"label":"10% OFF","original_price":1100,"discounted_price":990,"savings":110},"has_discount":true},{"id":3992,"category_id":4,"name":"Product EAR639ACS","slug":"product-ear639acs","sku":"EAR639ACS","description":"?Sri Shringarr Fashion Womens Real Look, Traditional Micro Silver Polished American Diamond Earrings designed by Yosshita & Neha. \n\\n?Look feminine and elegant by wearing these beautiful American Diamond earrings.\n\\n?Featuring attractive designs, these earrings can look elegant and stylish when worn with Anarkali, Lehengas, Sarees or Gown. \n\\n?So enhance your style quotient on almost any occasion by wearing these earrings. \n\\n?These Earrings are studded with White Coloured American Diamond stones.\n\\n?Comes micro gold polished. \n\\n?It has Brass metal base. \n\\n?Give a rich yet elegant touch to your attire. \n\\n?Screw for locking. \n\\n?These Earrings have been intricately designed for all the jewellery lovers.","short_description":"","price":"2200.00","sale_price":1980,"stock_qty":1,"is_featured":0,"status":"published","main_image":"uploads/products/EAR639ACS/product-ear639acs-6a5f7b01a6919.jpg","view_count":2,"created_at":"2026-07-21 19:28:25","updated_at":"2026-07-22 15:37:08","deleted_at":null,"category_name":"Earrings","images":[{"image_path":"uploads/products/EAR639ACS/product-ear639acs-6a5f7b02060a0.jpg","thumb_path":"uploads/products/EAR639ACS/thumbs/thumb_product-ear639acs-6a5f7b02060a0.jpg"}],"original_price":2200,"discount_info":{"rule_id":1,"rule_name":"Sample 10% Off Global Sale","type":"percentage","value":10,"label":"10% OFF","original_price":2200,"discounted_price":1980,"savings":220},"has_discount":true},{"id":3990,"category_id":4,"name":"Product EAR603ACS","slug":"product-ear603acs","sku":"EAR603ACS","description":"?Sri Shringarr Fashion Womens Real Look, Traditional Micro Gold Polished American Diamond Earrings designed by Yosshita & Neha. \n\\n?Look feminine and elegant by wearing these beautiful American Diamond earrings.\n\\n?Featuring attractive designs, these earrings can look elegant and stylish when worn with Anarkali, Lehengas, Sarees or Gown. \n\\n?So enhance your style quotient on almost any occasion by wearing these earrings. \n\\n?These Earrings are studded with Green coloured semi precious stone.\n\\n?Comes micro gold polished. \n\\n?It has Brass metal base. \n\\n?Give a rich yet elegant touch to your attire. \n\\n?These Earrings have been intricately designed for all the jewellery lovers.","short_description":"","price":"2800.00","sale_price":2520,"stock_qty":1,"is_featured":0,"status":"published","main_image":"uploads/products/EAR603ACS/product-ear603acs-6a5f7b008ce3a.jpg","view_count":0,"created_at":"2026-07-21 19:28:24","updated_at":"2026-07-22 15:37:51","deleted_at":null,"category_name":"Earrings","images":[],"original_price":2800,"discount_info":{"rule_id":1,"rule_name":"Sample 10% Off Global Sale","type":"percentage","value":10,"label":"10% OFF","original_price":2800,"discounted_price":2520,"savings":280},"has_discount":true},{"id":3991,"category_id":4,"name":"Product EAR611CS","slug":"product-ear611cs","sku":"EAR611CS","description":"?Sri Shringarr Fashion Womens Real Look, Traditional Micro Gold Polished American Diamond Earrings designed by Yosshita & Neha. \n\\n?Look feminine and elegant by wearing these beautiful American Diamond earrings.\n\\n?Featuring attractive designs, these earrings can look elegant and stylish when worn with Anarkali, Lehengas, Sarees or Gown. \n\\n?So enhance your style quotient on almost any occasion by wearing these earrings. \n\\n?These Earrings are studded with White American Diamond stones and Champagne coloured semi precious stone.\n\\n?Comes micro gold polished. \n\\n?It has Brass metal base. \n\\n?Give a rich yet elegant touch to your attire. \n\\n?These Earrings have been intricately designed for all the jewellery lovers.","short_description":"","price":"8000.00","sale_price":7200,"stock_qty":1,"is_featured":0,"status":"published","main_image":"uploads/products/EAR611CS/product-ear611cs-6a5f7b00e9da3.jpg","view_count":6,"created_at":"2026-07-21 19:28:24","updated_at":"2026-07-22 19:13:42","deleted_at":null,"category_name":"Earrings","images":[{"image_path":"uploads/products/EAR611CS/product-ear611cs-6a5f7b0142965.jpg","thumb_path":"uploads/products/EAR611CS/thumbs/thumb_product-ear611cs-6a5f7b0142965.jpg"}],"original_price":8000,"discount_info":{"rule_id":1,"rule_name":"Sample 10% Off Global Sale","type":"percentage","value":10,"label":"10% OFF","original_price":8000,"discounted_price":7200,"savings":800},"has_discount":true},{"id":3988,"category_id":10,"name":"Product T650AON","slug":"product-t650aon","sku":"T650AON","description":"?Women's Real Look, Traditional Micro Gold Polished Antique work Earrings designed by Yosshita & Neha. \r\\n?Look feminine and elegant by wearing these long american diamond Earrings.\r\\n?Featuring attractive designs, these Earrings can look elegant and stylish when worn with anarkali, lehengas and saris. \r\\n?So enhance your style quotient on almost any occasion by wearing these Earrings. \r\\n?These Earrings are studded with american diamonds, semi precious kundan stones and intricate antique work with black enamel polish & pearl drops.\r\\n?Comes micro gold polished. \r\\n?It has copper metal base. \r\\n?Give a rich yet elegant touch to your attire. \r\\n?These Earrings have been intricately designed for all the jewellery lovers.","short_description":"","price":"2500.00","sale_price":2250,"stock_qty":1,"is_featured":0,"status":"published","main_image":"uploads/products/T650AON/product-t650aon-6a5f7affa39c8.jpg","view_count":0,"created_at":"2026-07-21 19:28:23","updated_at":"2026-07-21 19:28:23","deleted_at":null,"category_name":"Diamond","images":[],"original_price":2500,"discount_info":{"rule_id":1,"rule_name":"Sample 10% Off Global Sale","type":"percentage","value":10,"label":"10% OFF","original_price":2500,"discounted_price":2250,"savings":250},"has_discount":true},{"id":3989,"category_id":4,"name":"Product EAR594CS","slug":"product-ear594cs","sku":"EAR594CS","description":"?Sri Shringarr Fashion Womens Real Look, Traditional Micro Gold Polished Semi Precious Kundan Earrings designed by Yosshita & Neha. \n\\n?Look feminine and elegant by wearing these beautiful Semi Precious Kundan earrings.\n\\n?Featuring attractive designs, these earrings can look elegant and stylish when worn with Anarkali, Lehengas, Sarees or Gown. \n\\n?So enhance your style quotient on almost any occasion by wearing these earrings.\n\\n?These Earrings are studded with Ruby & Green Coloured Semi Precious Kundan & Pearls.\n\\n?Comes micro gold polished. \n\\n?It has Copper metal base. \n\\n?Give a rich yet elegant touch to your attire. \n\\n?Screw for locking. \n\\n?These Earrings have been intricately designed for all the jewellery lovers.","short_description":"","price":"3100.00","sale_price":2790,"stock_qty":0,"is_featured":0,"status":"published","main_image":"uploads/products/EAR594CS/product-ear594cs-6a5f7affee0ba.jpg","view_count":0,"created_at":"2026-07-21 19:28:23","updated_at":"2026-07-22 15:37:51","deleted_at":null,"category_name":"Earrings","images":[{"image_path":"uploads/products/EAR594CS/product-ear594cs-6a5f7b0038672.jpg","thumb_path":"uploads/products/EAR594CS/thumbs/thumb_product-ear594cs-6a5f7b0038672.jpg"}],"original_price":3100,"discount_info":{"rule_id":1,"rule_name":"Sample 10% Off Global Sale","type":"percentage","value":10,"label":"10% OFF","original_price":3100,"discounted_price":2790,"savings":310},"has_discount":true},{"id":3987,"category_id":10,"name":"Product EAR466","slug":"product-ear466","sku":"EAR466","description":"?Women's Real Look, Traditional Micro Silver Polished American Diamond Earrings designed by Yosshita & Neha. \r\\n?Look feminine and elegant by wearing these beautiful American Diamond Earrings.\r\\n?Featuring attractive designs, these Earrings can look elegant and stylish when worn with Anarkali, Lehengas, Saris or Gown. \r\\n?So enhance your style quotient on almost any occasion by wearing these Earrings. \r\\n?These Earrings are studded with White Coloured American Diamond stones & a Pearl Drop.\r\\n?Comes micro gold polished. \r\\n?It has Brass metal base. \r\\n?Give a rich yet elegant touch to your attire. \r\\n?Screw for locking. \r\\n?These Earrings have been intricately designed for all the jewellery lovers.","short_description":"","price":"1200.00","sale_price":1080,"stock_qty":2,"is_featured":0,"status":"published","main_image":"uploads/products/EAR466/product-ear466-6a5f7afe8f68f.jpg","view_count":0,"created_at":"2026-07-21 19:28:22","updated_at":"2026-07-21 19:28:23","deleted_at":null,"category_name":"Diamond","images":[],"original_price":1200,"discount_info":{"rule_id":1,"rule_name":"Sample 10% Off Global Sale","type":"percentage","value":10,"label":"10% OFF","original_price":1200,"discounted_price":1080,"savings":120},"has_discount":true},{"id":3984,"category_id":10,"name":"Product EAR422","slug":"product-ear422","sku":"EAR422","description":"?Women's Real Look, Traditional Micro Gold Polished American Diamond Earrings designed by Yosshita & Neha. \r\\n?Look feminine and elegant by wearing these beautiful American Diamond Earrings.\r\\n?Featuring attractive designs, these Earrings can look elegant and stylish when worn with Anarkali, Lehengas, Saris or Gown. \r\\n?So enhance your style quotient on almost any occasion by wearing these Earrings. \r\\n?These Earrings are studded with White American Diamond stones and Pink coloured semi precious stone & a Pearl Drop.\r\\n?Comes micro gold polished. \r\\n?It has Brass metal base. \r\\n?Give a rich yet elegant touch to your attire. \r\\n?These Earrings have been intricately designed for all the jewellery lovers.","short_description":"","price":"1700.00","sale_price":1530,"stock_qty":0,"is_featured":0,"status":"published","main_image":"uploads/products/EAR422/product-ear422-6a5f7afd3e607.jpg","view_count":0,"created_at":"2026-07-21 19:28:21","updated_at":"2026-07-21 19:28:21","deleted_at":null,"category_name":"Diamond","images":[],"original_price":1700,"discount_info":{"rule_id":1,"rule_name":"Sample 10% Off Global Sale","type":"percentage","value":10,"label":"10% OFF","original_price":1700,"discounted_price":1530,"savings":170},"has_discount":true},{"id":3985,"category_id":10,"name":"Product EAR430","slug":"product-ear430","sku":"EAR430","description":"?Women's Real Look, Traditional Micro Gun Metal Polished American Diamond Earrings designed by Yosshita & Neha. \r\\n?Look feminine and elegant by wearing these beautiful American Diamond Earrings.\r\\n?Featuring attractive designs, these Earrings can look elegant and stylish when worn with Anarkali, Lehengas, Saris or Gown. \r\\n?So enhance your style quotient on almost any occasion by wearing these Earrings. \r\\n?These Earrings are studded with White Coloured American Diamond stones.\r\\n?Comes micro gold polished. \r\\n?It has Brass metal base. \r\\n?Give a rich yet elegant touch to your attire. \r\\n?Screw for locking. \r\\n?These Earrings have been intricately designed for all the jewellery lovers.","short_description":"","price":"2850.00","sale_price":2565,"stock_qty":1,"is_featured":0,"status":"published","main_image":"uploads/products/EAR430/product-ear430-6a5f7afd938b9.jpg","view_count":0,"created_at":"2026-07-21 19:28:21","updated_at":"2026-07-21 19:28:21","deleted_at":null,"category_name":"Diamond","images":[],"original_price":2850,"discount_info":{"rule_id":1,"rule_name":"Sample 10% Off Global Sale","type":"percentage","value":10,"label":"10% OFF","original_price":2850,"discounted_price":2565,"savings":285},"has_discount":true},{"id":3986,"category_id":10,"name":"Product EAR453CS","slug":"product-ear453cs","sku":"EAR453CS","description":"? Women's Real Look, Traditional Micro Gold Polished, American Diamond Earrings designed by Yosshita & Neha. \r\\n?Look feminine and elegant by wearing these beautiful Earrings.\r\\n?Featuring attractive designs, these Earrings can look elegant and stylish when worn with anarkali, lehengas, gowns or saris. \r\\n?So enhance your style quotient on almost any occasion by wearing these Earrings. \r\\n?These Earrings are studded with White & Black Coloured American Diamond stones & a pearl drop.\r\\n?Comes micro Gold polished. \r\\n?It has Brass metal base. \r\\n?Give a rich yet elegant touch to your attire. \r\\n?Screw for locking. \r\\n?These Earrings have been intricately designed for all the jewellery lovers.","short_description":"","price":"4500.00","sale_price":4050,"stock_qty":1,"is_featured":0,"status":"published","main_image":"uploads/products/EAR453CS/product-ear453cs-6a5f7afde9e5e.jpg","view_count":0,"created_at":"2026-07-21 19:28:21","updated_at":"2026-07-21 19:28:22","deleted_at":null,"category_name":"Diamond","images":[{"image_path":"uploads/products/EAR453CS/product-ear453cs-6a5f7afe3c61f.jpg","thumb_path":"uploads/products/EAR453CS/thumbs/thumb_product-ear453cs-6a5f7afe3c61f.jpg"}],"original_price":4500,"discount_info":{"rule_id":1,"rule_name":"Sample 10% Off Global Sale","type":"percentage","value":10,"label":"10% OFF","original_price":4500,"discounted_price":4050,"savings":450},"has_discount":true}],"pagination":{"current_page":1,"total_pages":197,"total_items":2354,"limit":12}}}